{
  "tracks": [],
  "turnouts": [
    {
      "name": "T1",
      "x": 350,
      "y": 50,
      "angle": 180,
      "kind": "l",
      "pin": [0],
      "s_pwm": [2200],
      "t_pwm": [1600]
    }
  ],
  "occupancy": [
    {
      "name": "O1",
      "x": 350,
      "y": 50,
      "pin": 1
    },
    {
      "name": "O2",
      "x": 350,
      "y": 50,
      "pin": 2
    }

  ],
  "switches": [],
  "graph": [
    {
      "from": "O1",
      "to": "O2",
      "turnouts": [["T1", "S"]]
    }
  ],
  "height": 400,
  "width": 600
}